{
    
    "downloads": [

	{
    
            "android": [ "5.1/5.1.1" ],
            "url": "http://forum.xda-developers.com/devdb/project/dl/?id=12584&task=get",
            "version": "2.00",
            "note": "CHANGELOG:"
            "note": "-Kernel Rebased"
            "note": "-Add deeper incremental overclocking up to 2.95 GHz. Still boots at stock frequency"
            "note": "-Min CPU frequency down to 96 MHz, options for 192 and 249 MHz. Still boots at stock frequency"
            "note": "-Built with -O3 CFLAGS Makefile variables for extreme optimization"
            "note": "-Add MultiROM support"
            "note": "-exFAT support built-in to kernel rather than a module"
            "note": "-Add some speed and stability updates"
            "note": "-Add additional thermal driver settings"
    
        }
    
    ],
    "lists": [
    
        {
    
            "url": "http://electroactive.org/features.html",
            "name": "Features"

        },
        {
    
            "url": "http://electroactive.org",
            "name": "Website"

        },
        {
    
            "url": "https://www.paypal.com/cgi-bin/webscr?cmd=_donations&business=ymostafa30%40gmail%2ecom&lc=US&no_note=0&currency_code=USD&bn=PP%2dDonationsBF%3aPaypal_button1%2epng%3aNonHostedGuest",
            "name": "Donation"

        }
    
    ]
    
}
